%!PS-Adobe-3.0
%%DocumentNeededResources: font Helvetica
%%+ font Helvetica-Bold
%%+ font Helvetica-Oblique
%%+ font Helvetica-BoldOblique
%%+ font Symbol
%%DocumentMedia: a4 595 841 0 () ()
%%Title: R Graphics Output
%%Creator: R Software
%%Pages: (atend)
%%Orientation: Landscape
%%BoundingBox: 18 18 577 824
%%EndComments
%%BeginProlog
/bp  { gs 595.00 0 translate 90 rotate gs } def
% begin .ps.prolog
/gs  { gsave } def
/gr  { grestore } def
/ep  { showpage gr gr } def
/m   { moveto } def
/l  { rlineto } def
/np  { newpath } def
/cp  { closepath } def
/f   { fill } def
/o   { stroke } def
/c   { newpath 0 360 arc } def
/r   { 4 2 roll moveto 1 copy 3 -1 roll exch 0 exch rlineto 0 rlineto -1 mul 0 exch rlineto closepath } def
/p1  { stroke } def
/p2  { gsave bg fill grestore newpath } def
/p3  { gsave bg fill grestore stroke } def
/p6  { gsave bg eofill grestore newpath } def
/p7  { gsave bg eofill grestore stroke } def
/t   { 5 -2 roll moveto gsave rotate
       1 index stringwidth pop
       mul neg 0 rmoveto show grestore } def
/ta  { 4 -2 roll moveto gsave rotate show } def
/tb  { 2 -1 roll 0 rmoveto show } def
/cl  { grestore gsave newpath 3 index 3 index moveto 1 index
       4 -1 roll lineto  exch 1 index lineto lineto
       closepath clip newpath } def
/rgb { setrgbcolor } def
/s   { scalefont setfont } def
% end   .ps.prolog
% begin encoding
/WinAnsiEncoding [
 /.notdef /.notdef /.notdef /.notdef /.notdef /.notdef /.notdef /.notdef
 /.notdef /.notdef /.notdef /.notdef /.notdef /.notdef /.notdef /.notdef
 /.notdef /.notdef /.notdef /.notdef /.notdef /.notdef /.notdef /.notdef
 /.notdef /.notdef /.notdef /.notdef /.notdef /.notdef /.notdef /.notdef
 /space /exclam /quotedbl /numbersign /dollar /percent /ampersand /quoteright
 /parenleft /parenright /asterisk /plus /comma /minus /period /slash
 /zero /one /two /three /four /five /six /seven
 /eight /nine /colon /semicolon /less /equal /greater /question
 /at /A /B /C /D /E /F /G
 /H /I /J /K /L /M /N /O
 /P /Q /R /S /T /U /V /W
 /X /Y /Z /bracketleft /backslash /bracketright /asciicircum /underscore
 /grave /a /b /c /d /e /f /g
 /h /i /j /k /l /m /n /o
 /p /q /r /s /t /u /v /w
 /x /y /z /braceleft /bar /braceright /asciitilde /.notdef
 /Euro /.notdef /quotesinglbase /florin /quotedblbase /ellipsis /dagger /daggerdbl
 /circumflex /perthousand /Scaron /guilsinglleft /OE /.notdef /Zcaron /.notdef
 /.notdef /quoteleft /quoteright /quotedblleft /quotedblright /bullet /endash /emdash
 /tilde /trademark /scaron /guilsinglright /oe /.notdef /zcaron /Ydieresis
 /space /exclamdown /cent /sterling /currency /yen /brokenbar /section
 /dieresis /copyright /ordfeminine /guillemotleft /logicalnot /hyphen /registered /macron
 /degree /plusminus /twosuperior /threesuperior /acute /mu /paragraph /periodcentered
 /cedilla /onesuperior /ordmasculine /guillemotright /onequarter /onehalf /threequarters /questiondown
 /Agrave /Aacute /Acircumflex /Atilde /Adieresis /Aring /AE /Ccedilla
 /Egrave /Eacute /Ecircumflex /Edieresis /Igrave /Iacute /Icircumflex /Idieresis
 /Eth /Ntilde /Ograve /Oacute /Ocircumflex /Otilde /Odieresis /multiply
 /Oslash /Ugrave /Uacute /Ucircumflex /Udieresis /Yacute /Thorn /germandbls
 /agrave /aacute /acircumflex /atilde /adieresis /aring /ae /ccedilla
 /egrave /eacute /ecircumflex /edieresis /igrave /iacute /icircumflex /idieresis
 /eth /ntilde /ograve /oacute /ocircumflex /otilde /odieresis /divide
 /oslash /ugrave /uacute /ucircumflex /udieresis /yacute /thorn /ydieresis
]
 def
% end encoding
%%IncludeResource: font Helvetica
/Helvetica findfont
dup length dict begin
  {1 index /FID ne {def} {pop pop} ifelse} forall
  /Encoding WinAnsiEncoding def
  currentdict
  end
/Font1 exch definefont pop
%%IncludeResource: font Helvetica-Bold
/Helvetica-Bold findfont
dup length dict begin
  {1 index /FID ne {def} {pop pop} ifelse} forall
  /Encoding WinAnsiEncoding def
  currentdict
  end
/Font2 exch definefont pop
%%IncludeResource: font Helvetica-Oblique
/Helvetica-Oblique findfont
dup length dict begin
  {1 index /FID ne {def} {pop pop} ifelse} forall
  /Encoding WinAnsiEncoding def
  currentdict
  end
/Font3 exch definefont pop
%%IncludeResource: font Helvetica-BoldOblique
/Helvetica-BoldOblique findfont
dup length dict begin
  {1 index /FID ne {def} {pop pop} ifelse} forall
  /Encoding WinAnsiEncoding def
  currentdict
  end
/Font4 exch definefont pop
%%IncludeResource: font Symbol
/Symbol findfont
dup length dict begin
  {1 index /FID ne {def} {pop pop} ifelse} forall
  currentdict
  end
/Font5 exch definefont pop
%%EndProlog
%%Page: 1 1
bp
77.04 91.44 793.65 518.24 cl
77.04 91.44 793.65 518.24 cl
/bg { 1 setgray } def
0 setgray
0.75 setlinewidth
[] 0 setdash
1 setlinecap
1 setlinejoin
10.00 setmiterlimit
np
 593.42 304.84 m
-0.08 5.08 l
-0.25 5.07 l
-0.41 5.07 l
-0.57 5.05 l
-0.73 5.03 l
-0.89 5.00 l
-1.06 4.97 l
-1.21 4.94 l
-1.37 4.89 l
-1.53 4.85 l
-1.68 4.79 l
-1.84 4.74 l
-1.99 4.68 l
-2.14 4.61 l
-2.28 4.54 l
-2.43 4.46 l
-2.57 4.38 l
-2.71 4.30 l
-2.85 4.21 l
-2.98 4.12 l
-3.11 4.01 l
-3.24 3.92 l
-3.36 3.81 l
-3.49 3.70 l
-3.60 3.58 l
-3.71 3.47 l
-3.83 3.35 l
-3.93 3.22 l
-4.03 3.09 l
-4.13 2.96 l
-4.22 2.83 l
-4.31 2.69 l
-4.40 2.56 l
-4.47 2.40 l
-4.55 2.27 l
-4.62 2.11 l
-4.69 1.97 l
-4.74 1.81 l
-4.81 1.67 l
-4.85 1.50 l
-4.90 1.35 l
-4.94 1.19 l
-4.98 1.03 l
-5.00 0.88 l
-5.03 0.71 l
-5.06 0.54 l
-5.06 0.39 l
-5.08 0.22 l
-5.08 0.06 l
-5.08 -0.11 l
-5.08 -0.26 l
-5.06 -0.44 l
-5.05 -0.59 l
-5.02 -0.75 l
-5.00 -0.92 l
-4.97 -1.08 l
-4.93 -1.23 l
-4.88 -1.40 l
-4.84 -1.55 l
-4.79 -1.70 l
-4.73 -1.86 l
-4.67 -2.01 l
-4.60 -2.16 l
-4.53 -2.30 l
-4.45 -2.45 l
-4.37 -2.59 l
-4.29 -2.73 l
-4.19 -2.87 l
-4.11 -3.00 l
-4.00 -3.13 l
-3.90 -3.25 l
-3.79 -3.39 l
-3.69 -3.50 l
-3.57 -3.61 l
114.30 -109.19 l
cp p3
np
494.16 451.56 m
2.94 7.34 l
o
18.00 18.00 823.89 577.28 cl
/Font1 findfont 14 s
0 setgray
500.04 461.44 (37.9%) 0 0 t
77.04 91.44 793.65 518.24 cl
/bg { 0.8980 setgray } def
0 setgray
0.75 setlinewidth
[] 0 setdash
1 setlinecap
1 setlinejoin
10.00 setmiterlimit
np
 321.04 414.03 m
-3.47 -3.76 l
-3.35 -3.87 l
-3.22 -3.97 l
-3.10 -4.08 l
-2.96 -4.17 l
-2.82 -4.27 l
-2.68 -4.35 l
-2.54 -4.44 l
-2.40 -4.52 l
-2.25 -4.60 l
-2.10 -4.67 l
-1.94 -4.73 l
-1.80 -4.79 l
-1.63 -4.85 l
-1.48 -4.89 l
-1.32 -4.95 l
-1.16 -4.98 l
-1.00 -5.02 l
-0.83 -5.05 l
-0.67 -5.07 l
-0.51 -5.09 l
-0.34 -5.11 l
-0.17 -5.11 l
-0.01 -5.12 l
0.15 -5.11 l
0.33 -5.11 l
0.48 -5.09 l
0.65 -5.07 l
0.82 -5.05 l
0.98 -5.03 l
1.14 -4.98 l
1.30 -4.95 l
1.46 -4.91 l
1.62 -4.85 l
1.77 -4.80 l
1.93 -4.74 l
2.08 -4.67 l
2.23 -4.60 l
2.38 -4.53 l
2.53 -4.45 l
2.66 -4.37 l
2.81 -4.28 l
2.94 -4.18 l
3.08 -4.09 l
3.21 -3.98 l
3.34 -3.88 l
3.46 -3.77 l
3.58 -3.66 l
3.69 -3.54 l
107.43 115.96 l
cp p3
np
277.35 300.02 m
-7.90 -0.24 l
o
18.00 18.00 823.89 577.28 cl
/Font1 findfont 14 s
0 setgray
261.55 294.75 (25.2%) 1 0 t
77.04 91.44 793.65 518.24 cl
/bg { 0.7020 setgray } def
0 setgray
0.75 setlinewidth
[] 0 setdash
1 setlinecap
1 setlinejoin
10.00 setmiterlimit
np
 327.91 188.88 m
3.90 -3.49 l
4.01 -3.36 l
4.12 -3.23 l
4.23 -3.09 l
4.32 -2.95 l
4.42 -2.80 l
4.51 -2.66 l
4.60 -2.50 l
4.68 -2.35 l
4.75 -2.20 l
4.82 -2.03 l
4.89 -1.88 l
4.94 -1.71 l
5.01 -1.55 l
5.04 -1.38 l
5.10 -1.21 l
5.12 -1.05 l
5.17 -0.87 l
5.18 -0.70 l
5.21 -0.53 l
5.22 -0.36 l
5.23 -0.19 l
5.24 -0.01 l
5.23 0.16 l
5.22 0.34 l
5.21 0.51 l
5.19 0.68 l
5.17 0.85 l
5.13 1.02 l
5.10 1.19 l
5.05 1.36 l
5.01 1.53 l
4.95 1.69 l
4.90 1.85 l
4.83 2.02 l
-63.27 144.86 l
cp p3
np
408.95 148.98 m
-1.32 -7.79 l
o
18.00 18.00 823.89 577.28 cl
/Font1 findfont 14 s
0 setgray
406.31 128.61 (18.4%) 1 0 t
77.04 91.44 793.65 518.24 cl
/bg { 0.6000 setgray } def
0 setgray
0.75 setlinewidth
[] 0 setdash
1 setlinecap
1 setlinejoin
10.00 setmiterlimit
np
 498.61 159.98 m
4.78 2.18 l
4.71 2.35 l
4.63 2.49 l
4.54 2.65 l
4.46 2.80 l
4.35 2.95 l
4.26 3.09 l
4.15 3.23 l
4.04 3.37 l
3.93 3.50 l
3.80 3.62 l
3.69 3.76 l
3.56 3.87 l
3.42 3.99 l
3.30 4.10 l
3.15 4.21 l
3.02 4.31 l
2.86 4.41 l
2.72 4.50 l
2.57 4.59 l
2.42 4.67 l
2.25 4.75 l
-143.88 65.47 l
cp p3
np
546.26 192.21 m
5.55 -5.63 l
o
18.00 18.00 823.89 577.28 cl
/Font1 findfont 14 s
0 setgray
557.36 176.16 (11.7%) 0 0 t
77.04 91.44 793.65 518.24 cl
/bg { 0.4000 setgray } def
0 setgray
0.75 setlinewidth
[] 0 setdash
1 setlinecap
1 setlinejoin
10.00 setmiterlimit
np
 579.22 239.37 m
2.24 5.16 l
2.05 5.24 l
1.87 5.30 l
1.68 5.37 l
1.48 5.43 l
1.29 5.47 l
1.09 5.52 l
0.90 5.55 l
0.70 5.59 l
0.50 5.60 l
0.30 5.61 l
0.10 5.63 l
-158.08 0 l
cp p3
np
589.83 271.34 m
7.72 -1.67 l
o
18.00 18.00 823.89 577.28 cl
/Font1 findfont 14 s
0 setgray
605.28 263.21 (6.8%) 0 0 t
77.04 91.44 793.65 518.24 cl
/bg { 1 setgray } def
0 setgray
0.75 setlinewidth
[] 0 setdash
1 setlinecap
1 setlinejoin
10.00 setmiterlimit
601.82 468.27 14.63 -12.19 r p3
/bg { 0.8980 setgray } def
601.82 428.02 14.63 -12.19 r p3
/bg { 0.7020 setgray } def
601.82 387.77 14.63 -12.19 r p3
/bg { 0.6000 setgray } def
601.82 347.52 14.63 -12.19 r p3
/bg { 0.4000 setgray } def
601.82 307.27 14.63 -12.19 r p3
/Font1 findfont 14 s
634.73 465.79 (Medulob) 0 ta
-0.280 (lastoma/PNET) tb gr
634.73 448.51 (\(n=39\)) 0 0 t
634.73 416.90 (Nao Biopsiado \(n=26\)) 0 0 t
634.73 376.65 (GBG \(n=19\)) 0 0 t
634.73 336.40 (Ependimoma \(n=12\)) 0 0 t
634.73 296.15 (GA) 0 ta
-0.420 (G \(n=7\)) tb gr
ep
%%Trailer
%%Pages: 1
%%EOF
