%!PS-Adobe-3.0
%%DocumentNeededResources: font Helvetica
%%+ font Helvetica-Bold
%%+ font Helvetica-Oblique
%%+ font Helvetica-BoldOblique
%%+ font Symbol
%%DocumentMedia: a4 595 841 0 () ()
%%Title: R Graphics Output
%%Creator: R Software
%%Pages: (atend)
%%Orientation: Landscape
%%BoundingBox: 18 18 577 824
%%EndComments
%%BeginProlog
/bp  { gs 595.00 0 translate 90 rotate gs } def
% begin .ps.prolog
/gs  { gsave } def
/gr  { grestore } def
/ep  { showpage gr gr } def
/m   { moveto } def
/l  { rlineto } def
/np  { newpath } def
/cp  { closepath } def
/f   { fill } def
/o   { stroke } def
/c   { newpath 0 360 arc } def
/r   { 4 2 roll moveto 1 copy 3 -1 roll exch 0 exch rlineto 0 rlineto -1 mul 0 exch rlineto closepath } def
/p1  { stroke } def
/p2  { gsave bg fill grestore newpath } def
/p3  { gsave bg fill grestore stroke } def
/p6  { gsave bg eofill grestore newpath } def
/p7  { gsave bg eofill grestore stroke } def
/t   { 5 -2 roll moveto gsave rotate
       1 index stringwidth pop
       mul neg 0 rmoveto show grestore } def
/ta  { 4 -2 roll moveto gsave rotate show } def
/tb  { 2 -1 roll 0 rmoveto show } def
/cl  { grestore gsave newpath 3 index 3 index moveto 1 index
       4 -1 roll lineto  exch 1 index lineto lineto
       closepath clip newpath } def
/rgb { setrgbcolor } def
/s   { scalefont setfont } def
% end   .ps.prolog
% begin encoding
/WinAnsiEncoding [
 /.notdef /.notdef /.notdef /.notdef /.notdef /.notdef /.notdef /.notdef
 /.notdef /.notdef /.notdef /.notdef /.notdef /.notdef /.notdef /.notdef
 /.notdef /.notdef /.notdef /.notdef /.notdef /.notdef /.notdef /.notdef
 /.notdef /.notdef /.notdef /.notdef /.notdef /.notdef /.notdef /.notdef
 /space /exclam /quotedbl /numbersign /dollar /percent /ampersand /quoteright
 /parenleft /parenright /asterisk /plus /comma /minus /period /slash
 /zero /one /two /three /four /five /six /seven
 /eight /nine /colon /semicolon /less /equal /greater /question
 /at /A /B /C /D /E /F /G
 /H /I /J /K /L /M /N /O
 /P /Q /R /S /T /U /V /W
 /X /Y /Z /bracketleft /backslash /bracketright /asciicircum /underscore
 /grave /a /b /c /d /e /f /g
 /h /i /j /k /l /m /n /o
 /p /q /r /s /t /u /v /w
 /x /y /z /braceleft /bar /braceright /asciitilde /.notdef
 /Euro /.notdef /quotesinglbase /florin /quotedblbase /ellipsis /dagger /daggerdbl
 /circumflex /perthousand /Scaron /guilsinglleft /OE /.notdef /Zcaron /.notdef
 /.notdef /quoteleft /quoteright /quotedblleft /quotedblright /bullet /endash /emdash
 /tilde /trademark /scaron /guilsinglright /oe /.notdef /zcaron /Ydieresis
 /space /exclamdown /cent /sterling /currency /yen /brokenbar /section
 /dieresis /copyright /ordfeminine /guillemotleft /logicalnot /hyphen /registered /macron
 /degree /plusminus /twosuperior /threesuperior /acute /mu /paragraph /periodcentered
 /cedilla /onesuperior /ordmasculine /guillemotright /onequarter /onehalf /threequarters /questiondown
 /Agrave /Aacute /Acircumflex /Atilde /Adieresis /Aring /AE /Ccedilla
 /Egrave /Eacute /Ecircumflex /Edieresis /Igrave /Iacute /Icircumflex /Idieresis
 /Eth /Ntilde /Ograve /Oacute /Ocircumflex /Otilde /Odieresis /multiply
 /Oslash /Ugrave /Uacute /Ucircumflex /Udieresis /Yacute /Thorn /germandbls
 /agrave /aacute /acircumflex /atilde /adieresis /aring /ae /ccedilla
 /egrave /eacute /ecircumflex /edieresis /igrave /iacute /icircumflex /idieresis
 /eth /ntilde /ograve /oacute /ocircumflex /otilde /odieresis /divide
 /oslash /ugrave /uacute /ucircumflex /udieresis /yacute /thorn /ydieresis
]
 def
% end encoding
%%IncludeResource: font Helvetica
/Helvetica findfont
dup length dict begin
  {1 index /FID ne {def} {pop pop} ifelse} forall
  /Encoding WinAnsiEncoding def
  currentdict
  end
/Font1 exch definefont pop
%%IncludeResource: font Helvetica-Bold
/Helvetica-Bold findfont
dup length dict begin
  {1 index /FID ne {def} {pop pop} ifelse} forall
  /Encoding WinAnsiEncoding def
  currentdict
  end
/Font2 exch definefont pop
%%IncludeResource: font Helvetica-Oblique
/Helvetica-Oblique findfont
dup length dict begin
  {1 index /FID ne {def} {pop pop} ifelse} forall
  /Encoding WinAnsiEncoding def
  currentdict
  end
/Font3 exch definefont pop
%%IncludeResource: font Helvetica-BoldOblique
/Helvetica-BoldOblique findfont
dup length dict begin
  {1 index /FID ne {def} {pop pop} ifelse} forall
  /Encoding WinAnsiEncoding def
  currentdict
  end
/Font4 exch definefont pop
%%IncludeResource: font Symbol
/Symbol findfont
dup length dict begin
  {1 index /FID ne {def} {pop pop} ifelse} forall
  currentdict
  end
/Font5 exch definefont pop
%%EndProlog
%%Page: 1 1
bp
77.04 91.44 793.65 518.24 cl
18.00 18.00 823.89 577.28 cl
0 setgray
0.75 setlinewidth
[] 0 setdash
1 setlinecap
1 setlinejoin
10.00 setmiterlimit
np
77.04 91.44 m
657.28 0 l
o
np
77.04 91.44 m
0 -7.20 l
o
np
186.59 91.44 m
0 -7.20 l
o
np
296.13 91.44 m
0 -7.20 l
o
np
405.68 91.44 m
0 -7.20 l
o
np
515.23 91.44 m
0 -7.20 l
o
np
624.77 91.44 m
0 -7.20 l
o
np
734.32 91.44 m
0 -7.20 l
o
/Font1 findfont 12 s
77.04 65.52 (0) .5 0 t
186.59 65.52 (20) .5 0 t
296.13 65.52 (40) .5 0 t
405.68 65.52 (60) .5 0 t
515.23 65.52 (80) .5 0 t
624.77 65.52 (100) .5 0 t
734.32 65.52 (120) .5 0 t
np
77.04 107.25 m
0 395.18 l
o
np
77.04 107.25 m
-7.20 0 l
o
np
77.04 186.28 m
-7.20 0 l
o
np
77.04 265.32 m
-7.20 0 l
o
np
77.04 344.36 m
-7.20 0 l
o
np
77.04 423.39 m
-7.20 0 l
o
np
77.04 502.43 m
-7.20 0 l
o
59.76 107.25 (0.0) .5 90 t
59.76 186.28 (0.2) .5 90 t
59.76 265.32 (0.4) .5 90 t
59.76 344.36 (0.6) .5 90 t
59.76 423.39 (0.8) .5 90 t
59.76 502.43 (1.0) .5 90 t
np
77.04 91.44 m
716.61 0 l
0 426.80 l
-716.61 0 l
0 -426.80 l
o
18.00 18.00 823.89 577.28 cl
/Font2 findfont 14 s
0 setgray
318.06 542.73 (Cur) 0 ta
0.140 (v) tb
-0.280 (a de sobre) tb
-0.210 (vida \(Kaplan-Meier\)) tb gr
/Font1 findfont 12 s
435.34 36.72 (Meses apos Diagnostico) .5 0 t
30.96 231.13 (Probabilidade de Sobre) 90 ta
-0.360 (vida) tb gr
77.04 91.44 793.65 518.24 cl
0 setgray
2.25 setlinewidth
[] 0 setdash
1 setlinecap
1 setlinejoin
10.00 setmiterlimit
np
77.04 502.43 m
2.19 0 l
0 -3.84 l
1.10 0 l
0 -3.84 l
0.54 0 l
0 -3.83 l
2.74 0 l
0 -3.84 l
3.84 0 l
0 -3.87 l
1.64 0 l
0 -3.92 l
0.55 0 l
0 -3.92 l
3.83 0 l
0 -3.91 l
2.74 0 l
0 -3.96 l
0.55 0 l
0 -4.00 l
3.83 0 l
0 -4.01 l
2.74 0 l
0 -4.00 l
0.55 0 l
0 -4.00 l
0.55 0 l
0 -4.01 l
1.09 0 l
0 -4.00 l
0.55 0 l
0 -4.00 l
2.19 0 l
0 -4.00 l
3.29 0 l
0 -4.01 l
1.09 0 l
0 -4.00 l
2.19 0 l
0 -4.00 l
0.55 0 l
0 -4.01 l
0.55 0 l
0 -4.00 l
1.09 0 l
0 -4.00 l
1.10 0 l
0 -4.00 l
3.29 0 l
0 -4.01 l
3.83 0 l
0 -4.00 l
1.10 0 l
0 -4.00 l
2.19 0 l
0 -4.06 l
1.64 0 l
0 -8.12 l
2.74 0 l
0 -4.06 l
3.29 0 l
0 -4.06 l
1.64 0 l
0 -4.06 l
6.02 0 l
0 -4.06 l
3.29 0 l
0 -4.06 l
2.74 0 l
0 -4.05 l
8.76 0 l
0 -4.06 l
0.55 0 l
0 -4.06 l
0.55 0 l
0 -4.06 l
14.24 0 l
0 -4.13 l
1.09 0 l
0 -4.13 l
1.65 0 l
0 -4.13 l
1.64 0 l
0 -4.13 l
9.86 0 l
0 -4.13 l
16.43 0 l
0 -4.13 l
3.84 0 l
0 -8.26 l
1.64 0 l
0 -4.12 l
20.81 0 l
0 -4.13 l
7.67 0 l
0 -4.13 l
23.01 0 l
0 -4.13 l
35.60 0 l
297.23 292.97 lineto
4.93 0 l
0 -4.22 l
51.49 0 l
0 -4.78 l
92.56 0 l
0 -5.89 l
47.11 0 l
0 -7.43 l
272.77 0 l
0 0 l
o
0.75 setlinewidth
[] 0 setdash
np
83.08 487.08 m
7.64 0 l
o
np
86.90 483.26 m
0 7.64 l
o
np
84.72 483.21 m
7.64 0 l
o
np
88.54 479.39 m
0 7.63 l
o
np
91.84 471.46 m
7.64 0 l
o
np
95.66 467.64 m
0 7.64 l
o
np
157.02 346.74 m
7.64 0 l
o
np
160.84 342.92 m
0 7.64 l
o
np
276.98 297.19 m
7.63 0 l
o
np
280.80 293.37 m
0 7.64 l
o
np
320.25 288.75 m
7.64 0 l
o
np
324.07 284.93 m
0 7.63 l
o
np
327.37 288.75 m
7.64 0 l
o
np
331.19 284.93 m
0 7.63 l
o
np
333.39 288.75 m
7.64 0 l
o
np
337.21 284.93 m
0 7.63 l
o
np
337.78 288.75 m
7.63 0 l
o
np
341.59 284.93 m
0 7.63 l
o
np
350.92 283.97 m
7.64 0 l
o
np
354.74 280.15 m
0 7.64 l
o
np
352.02 283.97 m
7.63 0 l
o
np
355.84 280.15 m
0 7.64 l
o
np
369.55 283.97 m
7.63 0 l
o
np
373.36 280.15 m
0 7.64 l
o
np
399.67 283.97 m
7.64 0 l
o
np
403.49 280.15 m
0 7.64 l
o
np
408.43 283.97 m
7.64 0 l
o
np
412.25 280.15 m
0 7.64 l
o
np
423.77 283.97 m
7.64 0 l
o
np
427.59 280.15 m
0 7.64 l
o
np
436.37 283.97 m
7.64 0 l
o
np
440.19 280.15 m
0 7.64 l
o
np
445.13 278.08 m
7.64 0 l
o
np
448.95 274.26 m
0 7.64 l
o
np
446.23 278.08 m
7.63 0 l
o
np
450.05 274.26 m
0 7.64 l
o
np
462.11 278.08 m
7.64 0 l
o
np
465.93 274.26 m
0 7.64 l
o
np
464.85 278.08 m
7.64 0 l
o
np
468.67 274.26 m
0 7.64 l
o
np
474.16 278.08 m
7.64 0 l
o
np
477.98 274.26 m
0 7.64 l
o
np
485.66 278.08 m
7.64 0 l
o
np
489.48 274.26 m
0 7.64 l
o
np
494.43 270.65 m
7.63 0 l
o
np
498.25 266.83 m
0 7.64 l
o
np
531.67 270.65 m
7.64 0 l
o
np
535.49 266.83 m
0 7.64 l
o
np
533.86 270.65 m
7.64 0 l
o
np
537.68 266.83 m
0 7.64 l
o
np
542.63 270.65 m
7.64 0 l
o
np
546.45 266.83 m
0 7.64 l
o
np
544.27 270.65 m
7.64 0 l
o
np
548.09 266.83 m
0 7.64 l
o
np
557.42 270.65 m
7.63 0 l
o
np
561.24 266.83 m
0 7.64 l
o
np
567.82 270.65 m
7.64 0 l
o
np
571.64 266.83 m
0 7.64 l
o
np
586.45 270.65 m
7.63 0 l
o
np
590.27 266.83 m
0 7.64 l
o
np
590.28 270.65 m
7.64 0 l
o
np
594.10 266.83 m
0 7.64 l
o
np
597.40 270.65 m
7.64 0 l
o
np
601.22 266.83 m
0 7.64 l
o
np
599.05 270.65 m
7.63 0 l
o
np
602.86 266.83 m
0 7.64 l
o
np
626.43 270.65 m
7.64 0 l
o
np
630.25 266.83 m
0 7.64 l
o
np
652.72 270.65 m
7.64 0 l
o
np
656.54 266.83 m
0 7.64 l
o
np
666.96 270.65 m
7.64 0 l
o
np
670.78 266.83 m
0 7.64 l
o
np
703.11 270.65 m
7.64 0 l
o
np
706.93 266.83 m
0 7.64 l
o
np
704.76 270.65 m
7.63 0 l
o
np
708.58 266.83 m
0 7.64 l
o
np
708.59 270.65 m
7.64 0 l
o
np
712.41 266.83 m
0 7.64 l
o
np
712.43 270.65 m
7.63 0 l
o
np
716.24 266.83 m
0 7.64 l
o
np
712.97 270.65 m
7.64 0 l
o
np
716.79 266.83 m
0 7.64 l
o
np
714.62 270.65 m
7.63 0 l
o
np
718.44 266.83 m
0 7.64 l
o
np
717.36 270.65 m
7.63 0 l
o
np
721.17 266.83 m
0 7.64 l
o
np
762.27 270.65 m
7.64 0 l
o
np
766.09 266.83 m
0 7.64 l
o
1 0 0 rgb
2.25 setlinewidth
[ 6.75 11.25] 0 setdash
np
77.04 502.43 m
3.83 0 l
0 0 l
0 0 l
0 -28.23 l
2.74 0 l
0 0 l
0 0 l
0 -28.23 l
12.60 0 l
0 0 l
0 0 l
0 -28.22 l
62.99 0 l
0 0 l
0 0 l
0 -31.05 l
0.55 0 l
0 0 l
0 0 l
0 -31.05 l
16.98 0 l
0 0 l
0 0 l
0 -31.05 l
31.77 0 l
0 0 l
0 0 l
0 -31.05 l
30.12 0 l
0 0 l
0 0 l
0 -31.05 l
63.54 0 l
0 0 l
0 0 l
0 -31.05 l
233.33 0 l
0 0 l
0 0 l
0 0 l
o
0.75 setlinewidth
[] 0 setdash
np
320.25 231.45 m
7.64 0 l
o
np
324.07 227.63 m
0 7.64 l
o
np
350.92 231.45 m
7.64 0 l
o
np
354.74 227.63 m
0 7.64 l
o
np
474.16 231.45 m
7.64 0 l
o
np
477.98 227.63 m
0 7.64 l
o
np
531.67 231.45 m
7.64 0 l
o
np
535.49 227.63 m
0 7.64 l
o
0 0.8039 0 rgb
2.25 setlinewidth
[ 0.00 9.00] 0 setdash
np
77.04 502.43 m
2.19 0 l
0 0 l
0 0 l
0 -7.91 l
9.86 0 l
0 0 l
0 0 l
0 -8.06 l
0.55 0 l
0 0 l
0 0 l
0 -8.07 l
10.95 0 l
0 0 l
0 0 l
0 -8.25 l
10.96 0 l
0 0 l
0 0 l
0 -8.25 l
3.83 0 l
0 0 l
0 0 l
0 -8.24 l
9.86 0 l
0 0 l
0 0 l
0 -8.25 l
3.29 0 l
0 0 l
0 0 l
0 -8.46 l
7.67 0 l
0 0 l
0 0 l
0 -8.45 l
1.64 0 l
0 0 l
0 0 l
0 -8.45 l
6.02 0 l
0 0 l
0 0 l
0 -8.46 l
6.03 0 l
0 0 l
0 0 l
0 -8.45 l
8.76 0 l
0 0 l
0 0 l
0 -8.45 l
2.19 0 l
0 0 l
0 0 l
0 -8.46 l
13.15 0 l
0 0 l
0 0 l
0 -8.45 l
1.09 0 l
0 0 l
0 0 l
0 -8.46 l
3.29 0 l
0 0 l
0 0 l
0 -8.45 l
9.86 0 l
0 0 l
0 0 l
0 -8.45 l
20.27 0 l
0 0 l
0 0 l
0 -8.46 l
53.13 0 l
0 0 l
0 0 l
0 -8.45 l
19.17 0 l
0 0 l
0 0 l
0 -8.45 l
16.43 0 l
0 0 l
0 0 l
0 -8.46 l
56.42 0 l
0 0 l
0 0 l
0 -8.80 l
92.56 0 l
0 0 l
0 0 l
0 -9.65 l
47.11 0 l
0 0 l
0 0 l
493.32 288.08 lineto
288.65 0 l
0 0 l
0 0 l
0 0 l
o
0.75 setlinewidth
[] 0 setdash
np
84.72 494.52 m
7.64 0 l
o
np
88.54 490.71 m
0 7.63 l
o
np
91.84 478.39 m
7.64 0 l
o
np
95.66 474.57 m
0 7.64 l
o
np
122.52 445.40 m
7.63 0 l
o
np
126.34 441.58 m
0 7.64 l
o
np
349.28 318.59 m
7.64 0 l
o
np
353.10 314.77 m
0 7.64 l
o
np
415.55 309.79 m
7.64 0 l
o
np
419.37 305.97 m
0 7.63 l
o
np
439.65 309.79 m
7.64 0 l
o
np
443.47 305.97 m
0 7.63 l
o
np
452.25 300.14 m
7.64 0 l
o
np
456.07 296.32 m
0 7.64 l
o
np
462.11 300.14 m
7.64 0 l
o
np
465.93 296.32 m
0 7.64 l
o
np
477.45 300.14 m
7.64 0 l
o
np
481.27 296.32 m
0 7.64 l
o
np
480.73 300.14 m
7.64 0 l
o
np
484.55 296.32 m
0 7.64 l
o
np
549.20 288.08 m
7.64 0 l
o
np
553.02 284.27 m
0 7.63 l
o
np
560.16 288.08 m
7.63 0 l
o
np
563.97 284.27 m
0 7.63 l
o
np
602.33 288.08 m
7.64 0 l
o
np
606.15 284.27 m
0 7.63 l
o
np
605.62 288.08 m
7.63 0 l
o
np
609.44 284.27 m
0 7.63 l
o
np
612.74 288.08 m
7.64 0 l
o
np
616.56 284.27 m
0 7.63 l
o
np
642.32 288.08 m
7.63 0 l
o
np
646.13 284.27 m
0 7.63 l
o
np
668.06 288.08 m
7.64 0 l
o
np
671.88 284.27 m
0 7.63 l
o
np
719.00 288.08 m
7.64 0 l
o
np
722.82 284.27 m
0 7.63 l
o
np
720.64 288.08 m
7.64 0 l
o
np
724.46 284.27 m
0 7.63 l
o
np
724.48 288.08 m
7.63 0 l
o
np
728.29 284.27 m
0 7.63 l
o
np
728.31 288.08 m
7.64 0 l
o
np
732.13 284.27 m
0 7.63 l
o
np
728.86 288.08 m
7.63 0 l
o
np
732.68 284.27 m
0 7.63 l
o
np
729.95 288.08 m
7.64 0 l
o
np
733.77 284.27 m
0 7.63 l
o
np
733.24 288.08 m
7.64 0 l
o
np
737.06 284.27 m
0 7.63 l
o
np
778.15 288.08 m
7.64 0 l
o
np
781.97 284.27 m
0 7.63 l
o
0 0 1 rgb
2.25 setlinewidth
[ 0.00 9.00 6.75 9.00] 0 setdash
np
77.04 502.43 m
3.29 0 l
0 0 l
0 0 l
0 -23.25 l
16.43 0 l
0 0 l
0 0 l
0 -23.24 l
7.12 0 l
0 0 l
0 0 l
0 -23.25 l
12.05 0 l
0 0 l
0 0 l
0 -23.25 l
14.24 0 l
0 0 l
0 0 l
0 -23.24 l
2.74 0 l
0 0 l
0 0 l
0 -23.25 l
14.24 0 l
0 0 l
0 0 l
0 -23.24 l
424.49 0 l
0 0 l
0 0 l
0 0 l
o
0.75 setlinewidth
[] 0 setdash
np
320.25 339.71 m
7.64 0 l
o
np
324.07 335.89 m
0 7.64 l
o
np
327.37 339.71 m
7.64 0 l
o
np
331.19 335.89 m
0 7.64 l
o
np
337.78 339.71 m
7.63 0 l
o
np
341.59 335.89 m
0 7.64 l
o
np
352.02 339.71 m
7.63 0 l
o
np
355.84 335.89 m
0 7.64 l
o
np
445.13 339.71 m
7.64 0 l
o
np
448.95 335.89 m
0 7.64 l
o
np
485.66 339.71 m
7.64 0 l
o
np
489.48 335.89 m
0 7.64 l
o
np
494.43 339.71 m
7.63 0 l
o
np
498.25 335.89 m
0 7.64 l
o
np
542.63 339.71 m
7.64 0 l
o
np
546.45 335.89 m
0 7.64 l
o
np
557.42 339.71 m
7.63 0 l
o
np
561.24 335.89 m
0 7.64 l
o
np
567.82 339.71 m
7.64 0 l
o
np
571.64 335.89 m
0 7.64 l
o
0 setgray
2.25 setlinewidth
[ 0.00 9.00 6.75 9.00] 0 setdash
np
77.04 502.43 m
10.41 0 l
0 0 l
0 0 l
0 -18.82 l
6.02 0 l
0 0 l
0 0 l
0 -18.82 l
9.86 0 l
0 0 l
0 0 l
0 -18.82 l
1.10 0 l
0 0 l
0 0 l
0 -18.81 l
1.09 0 l
0 0 l
0 0 l
0 -18.82 l
0.55 0 l
0 0 l
0 0 l
0 -18.82 l
2.19 0 l
0 0 l
0 0 l
0 -18.82 l
4.38 0 l
0 0 l
0 0 l
0 -18.82 l
2.19 0 l
0 0 l
0 0 l
0 -18.81 l
2.19 0 l
0 0 l
0 0 l
0 -18.82 l
1.10 0 l
0 0 l
0 0 l
0 -18.82 l
3.29 0 l
0 0 l
0 0 l
0 -18.82 l
4.93 0 l
0 0 l
0 0 l
0 -18.82 l
3.83 0 l
0 0 l
0 0 l
0 -18.82 l
74.49 0 l
0 0 l
0 0 l
0 -18.81 l
5.48 0 l
0 0 l
0 0 l
0 -18.82 l
20.81 0 l
0 0 l
0 0 l
0 -18.82 l
439.83 0 l
0 0 l
0 0 l
0 0 l
o
0.75 setlinewidth
[] 0 setdash
86.90 502.43 2.70 c p1
373.36 182.52 2.70 c p1
412.25 182.52 2.70 c p1
602.86 182.52 2.70 c p1
670.78 182.52 2.70 c p1
np
88.55 186.84 m
40.21 0 l
o
1 0 0 rgb
0.75 setlinewidth
[ 2.25 3.75] 0 setdash
np
88.55 166.73 m
40.21 0 l
o
0 0.8039 0 rgb
0.75 setlinewidth
[ 0.00 3.00] 0 setdash
np
88.55 146.62 m
40.21 0 l
o
0 0 1 rgb
0.75 setlinewidth
[ 0.00 3.00 2.25 3.00] 0 setdash
np
88.55 126.51 m
40.21 0 l
o
0 setgray
np
88.55 106.39 m
40.21 0 l
o
0.75 setlinewidth
[] 0 setdash
np
105.22 186.84 m
6.87 0 l
o
np
108.65 183.41 m
0 6.87 l
o
1 0 0 rgb
np
105.22 166.73 m
6.87 0 l
o
np
108.65 163.30 m
0 6.87 l
o
0 0.8039 0 rgb
np
105.22 146.62 m
6.87 0 l
o
np
108.65 143.18 m
0 6.88 l
o
0 0 1 rgb
np
105.22 126.51 m
6.87 0 l
o
np
108.65 123.07 m
0 6.87 l
o
0 setgray
108.65 106.39 2.43 c p1
/Font1 findfont 11 s
148.86 182.90 (T) 0 ta
-1.320 (odos) tb gr
148.86 162.78 (Supr) 0 ta
-0.110 (atentor) tb
0.165 (ial) tb gr
148.86 142.67 (FP e espinha) 0 0 t
148.86 122.56 (Diencef) 0 ta
-0.330 (alo) tb gr
148.86 102.45 (T) 0 ta
-1.320 (ronco) tb gr
ep
%%Trailer
%%Pages: 1
%%EOF
