%!PS-Adobe-3.0
%%DocumentNeededResources: font Helvetica
%%+ font Helvetica-Bold
%%+ font Helvetica-Oblique
%%+ font Helvetica-BoldOblique
%%+ font Symbol
%%DocumentMedia: a4 595 841 0 () ()
%%Title: R Graphics Output
%%Creator: R Software
%%Pages: (atend)
%%Orientation: Landscape
%%BoundingBox: 18 18 577 824
%%EndComments
%%BeginProlog
/bp  { gs 595.00 0 translate 90 rotate gs } def
% begin .ps.prolog
/gs  { gsave } def
/gr  { grestore } def
/ep  { showpage gr gr } def
/m   { moveto } def
/l  { rlineto } def
/np  { newpath } def
/cp  { closepath } def
/f   { fill } def
/o   { stroke } def
/c   { newpath 0 360 arc } def
/r   { 4 2 roll moveto 1 copy 3 -1 roll exch 0 exch rlineto 0 rlineto -1 mul 0 exch rlineto closepath } def
/p1  { stroke } def
/p2  { gsave bg fill grestore newpath } def
/p3  { gsave bg fill grestore stroke } def
/p6  { gsave bg eofill grestore newpath } def
/p7  { gsave bg eofill grestore stroke } def
/t   { 5 -2 roll moveto gsave rotate
       1 index stringwidth pop
       mul neg 0 rmoveto show grestore } def
/ta  { 4 -2 roll moveto gsave rotate show } def
/tb  { 2 -1 roll 0 rmoveto show } def
/cl  { grestore gsave newpath 3 index 3 index moveto 1 index
       4 -1 roll lineto  exch 1 index lineto lineto
       closepath clip newpath } def
/rgb { setrgbcolor } def
/s   { scalefont setfont } def
% end   .ps.prolog
% begin encoding
/WinAnsiEncoding [
 /.notdef /.notdef /.notdef /.notdef /.notdef /.notdef /.notdef /.notdef
 /.notdef /.notdef /.notdef /.notdef /.notdef /.notdef /.notdef /.notdef
 /.notdef /.notdef /.notdef /.notdef /.notdef /.notdef /.notdef /.notdef
 /.notdef /.notdef /.notdef /.notdef /.notdef /.notdef /.notdef /.notdef
 /space /exclam /quotedbl /numbersign /dollar /percent /ampersand /quoteright
 /parenleft /parenright /asterisk /plus /comma /minus /period /slash
 /zero /one /two /three /four /five /six /seven
 /eight /nine /colon /semicolon /less /equal /greater /question
 /at /A /B /C /D /E /F /G
 /H /I /J /K /L /M /N /O
 /P /Q /R /S /T /U /V /W
 /X /Y /Z /bracketleft /backslash /bracketright /asciicircum /underscore
 /grave /a /b /c /d /e /f /g
 /h /i /j /k /l /m /n /o
 /p /q /r /s /t /u /v /w
 /x /y /z /braceleft /bar /braceright /asciitilde /.notdef
 /Euro /.notdef /quotesinglbase /florin /quotedblbase /ellipsis /dagger /daggerdbl
 /circumflex /perthousand /Scaron /guilsinglleft /OE /.notdef /Zcaron /.notdef
 /.notdef /quoteleft /quoteright /quotedblleft /quotedblright /bullet /endash /emdash
 /tilde /trademark /scaron /guilsinglright /oe /.notdef /zcaron /Ydieresis
 /space /exclamdown /cent /sterling /currency /yen /brokenbar /section
 /dieresis /copyright /ordfeminine /guillemotleft /logicalnot /hyphen /registered /macron
 /degree /plusminus /twosuperior /threesuperior /acute /mu /paragraph /periodcentered
 /cedilla /onesuperior /ordmasculine /guillemotright /onequarter /onehalf /threequarters /questiondown
 /Agrave /Aacute /Acircumflex /Atilde /Adieresis /Aring /AE /Ccedilla
 /Egrave /Eacute /Ecircumflex /Edieresis /Igrave /Iacute /Icircumflex /Idieresis
 /Eth /Ntilde /Ograve /Oacute /Ocircumflex /Otilde /Odieresis /multiply
 /Oslash /Ugrave /Uacute /Ucircumflex /Udieresis /Yacute /Thorn /germandbls
 /agrave /aacute /acircumflex /atilde /adieresis /aring /ae /ccedilla
 /egrave /eacute /ecircumflex /edieresis /igrave /iacute /icircumflex /idieresis
 /eth /ntilde /ograve /oacute /ocircumflex /otilde /odieresis /divide
 /oslash /ugrave /uacute /ucircumflex /udieresis /yacute /thorn /ydieresis
]
 def
% end encoding
%%IncludeResource: font Helvetica
/Helvetica findfont
dup length dict begin
  {1 index /FID ne {def} {pop pop} ifelse} forall
  /Encoding WinAnsiEncoding def
  currentdict
  end
/Font1 exch definefont pop
%%IncludeResource: font Helvetica-Bold
/Helvetica-Bold findfont
dup length dict begin
  {1 index /FID ne {def} {pop pop} ifelse} forall
  /Encoding WinAnsiEncoding def
  currentdict
  end
/Font2 exch definefont pop
%%IncludeResource: font Helvetica-Oblique
/Helvetica-Oblique findfont
dup length dict begin
  {1 index /FID ne {def} {pop pop} ifelse} forall
  /Encoding WinAnsiEncoding def
  currentdict
  end
/Font3 exch definefont pop
%%IncludeResource: font Helvetica-BoldOblique
/Helvetica-BoldOblique findfont
dup length dict begin
  {1 index /FID ne {def} {pop pop} ifelse} forall
  /Encoding WinAnsiEncoding def
  currentdict
  end
/Font4 exch definefont pop
%%IncludeResource: font Symbol
/Symbol findfont
dup length dict begin
  {1 index /FID ne {def} {pop pop} ifelse} forall
  currentdict
  end
/Font5 exch definefont pop
%%EndProlog
%%Page: 1 1
bp
77.04 91.44 793.65 518.24 cl
18.00 18.00 823.89 577.28 cl
0 setgray
0.75 setlinewidth
[] 0 setdash
1 setlinecap
1 setlinejoin
10.00 setmiterlimit
np
77.04 91.44 m
642.47 0 l
o
np
77.04 91.44 m
0 -7.20 l
o
np
184.12 91.44 m
0 -7.20 l
o
np
291.20 91.44 m
0 -7.20 l
o
np
398.27 91.44 m
0 -7.20 l
o
np
505.35 91.44 m
0 -7.20 l
o
np
612.43 91.44 m
0 -7.20 l
o
np
719.51 91.44 m
0 -7.20 l
o
/Font1 findfont 12 s
77.04 65.52 (0) .5 0 t
184.12 65.52 (20) .5 0 t
291.20 65.52 (40) .5 0 t
398.27 65.52 (60) .5 0 t
505.35 65.52 (80) .5 0 t
612.43 65.52 (100) .5 0 t
719.51 65.52 (120) .5 0 t
np
77.04 107.25 m
0 395.18 l
o
np
77.04 107.25 m
-7.20 0 l
o
np
77.04 186.28 m
-7.20 0 l
o
np
77.04 265.32 m
-7.20 0 l
o
np
77.04 344.36 m
-7.20 0 l
o
np
77.04 423.39 m
-7.20 0 l
o
np
77.04 502.43 m
-7.20 0 l
o
59.76 107.25 (0.0) .5 90 t
59.76 186.28 (0.2) .5 90 t
59.76 265.32 (0.4) .5 90 t
59.76 344.36 (0.6) .5 90 t
59.76 423.39 (0.8) .5 90 t
59.76 502.43 (1.0) .5 90 t
np
77.04 91.44 m
716.61 0 l
0 426.80 l
-716.61 0 l
0 -426.80 l
o
18.00 18.00 823.89 577.28 cl
/Font2 findfont 14 s
0 setgray
318.06 542.73 (Cur) 0 ta
0.140 (v) tb
-0.280 (a de sobre) tb
-0.210 (vida \(Kaplan-Meier\)) tb gr
/Font1 findfont 12 s
435.34 36.72 (Meses apos Diagnostico) .5 0 t
30.96 231.13 (Probabilidade de Sobre) 90 ta
-0.360 (vida) tb gr
77.04 91.44 793.65 518.24 cl
0 setgray
2.25 setlinewidth
[ 6.75 11.25] 0 setdash
1 setlinecap
1 setlinejoin
10.00 setmiterlimit
np
77.04 502.43 m
2.14 0 l
0 -7.91 l
1.07 0 l
0 -7.90 l
0.54 0 l
0 -7.90 l
2.67 0 l
0 -7.91 l
5.89 0 l
0 -8.08 l
3.75 0 l
0 -8.07 l
2.68 0 l
0 -16.55 l
0.53 0 l
0 -8.27 l
6.43 0 l
0 -8.27 l
1.07 0 l
0 -8.27 l
1.07 0 l
0 -8.27 l
0.54 0 l
0 -8.28 l
6.42 0 l
0 -8.27 l
3.21 0 l
0 -8.27 l
9.10 0 l
0 -8.27 l
3.22 0 l
0 -8.54 l
1.60 0 l
0 -17.08 l
2.68 0 l
0 -8.53 l
10.71 0 l
0 -8.54 l
14.45 0 l
0 -8.54 l
0.54 0 l
0 -8.54 l
0.53 0 l
0 -8.54 l
13.92 0 l
0 -8.54 l
2.68 0 l
0 -8.54 l
1.61 0 l
0 -8.53 l
29.44 0 l
0 -8.54 l
21.95 0 l
0 -8.54 l
7.50 0 l
0 -8.54 l
112.43 0 l
0 -10.37 l
418.68 0 l
0 0 l
o
0.75 setlinewidth
[] 0 setdash
np
84.46 470.81 m
7.64 0 l
o
np
88.28 467.00 m
0 7.63 l
o
np
91.42 454.66 m
7.64 0 l
o
np
95.24 450.84 m
0 7.63 l
o
np
121.41 371.94 m
7.63 0 l
o
np
125.23 368.12 m
0 7.64 l
o
np
330.21 252.40 m
7.64 0 l
o
np
334.03 248.58 m
0 7.64 l
o
np
336.63 252.40 m
7.64 0 l
o
np
340.45 248.58 m
0 7.64 l
o
np
343.06 252.40 m
7.64 0 l
o
np
346.88 248.58 m
0 7.64 l
o
np
347.34 242.03 m
7.64 0 l
o
np
351.16 238.21 m
0 7.64 l
o
np
361.26 242.03 m
7.64 0 l
o
np
365.08 238.21 m
0 7.64 l
o
np
407.84 242.03 m
7.64 0 l
o
np
411.66 238.21 m
0 7.64 l
o
np
536.33 242.03 m
7.64 0 l
o
np
540.15 238.21 m
0 7.64 l
o
np
538.48 242.03 m
7.63 0 l
o
np
542.29 238.21 m
0 7.64 l
o
np
547.04 242.03 m
7.64 0 l
o
np
550.86 238.21 m
0 7.64 l
o
np
562.03 242.03 m
7.64 0 l
o
np
565.85 238.21 m
0 7.64 l
o
np
571.67 242.03 m
7.64 0 l
o
np
575.49 238.21 m
0 7.64 l
o
np
593.62 242.03 m
7.64 0 l
o
np
597.44 238.21 m
0 7.64 l
o
np
600.58 242.03 m
7.64 0 l
o
np
604.40 238.21 m
0 7.64 l
o
np
602.72 242.03 m
7.64 0 l
o
np
606.54 238.21 m
0 7.64 l
o
np
654.66 242.03 m
7.63 0 l
o
np
658.47 238.21 m
0 7.64 l
o
np
762.27 242.03 m
7.64 0 l
o
np
766.09 238.21 m
0 7.64 l
o
2.25 setlinewidth
[] 0 setdash
np
77.04 502.43 m
10.17 0 l
0 -7.60 l
1.61 0 l
0 -7.60 l
11.24 0 l
0 -7.60 l
3.21 0 l
0 -7.60 l
4.29 0 l
0 -7.60 l
3.21 0 l
0 -7.60 l
3.21 0 l
0 -7.60 l
0.54 0 l
0 -7.60 l
1.60 0 l
0 -7.60 l
1.07 0 l
0 -7.60 l
3.22 0 l
0 -7.60 l
4.82 0 l
0 -7.60 l
9.63 0 l
0 -7.60 l
1.61 0 l
0 -7.60 l
9.10 0 l
0 -7.60 l
2.68 0 l
0 -7.60 l
10.70 0 l
0 -7.60 l
13.92 0 l
0 -7.60 l
12.85 0 l
0 -7.59 l
16.07 0 l
0 -7.60 l
3.74 0 l
0 -7.60 l
1.61 0 l
0 -7.60 l
50.33 0 l
0 -7.60 l
18.74 0 l
0 -7.60 l
16.06 0 l
0 -7.60 l
4.82 0 l
0 -7.60 l
140.80 0 l
0 -9.41 l
2.68 0 l
0 -9.41 l
43.37 0 l
0 -11.92 l
238.25 0 l
0 0 l
o
0.75 setlinewidth
[] 0 setdash
86.68 502.43 2.70 c p1
334.03 304.84 2.70 c p1
364.01 304.84 2.70 c p1
381.68 304.84 2.70 c p1
420.23 304.84 2.70 c p1
435.22 304.84 2.70 c p1
447.53 286.02 2.70 c p1
457.17 286.02 2.70 c p1
472.16 286.02 2.70 c p1
475.37 286.02 2.70 c p1
484.47 274.10 2.70 c p1
495.18 274.10 2.70 c p1
504.28 274.10 2.70 c p1
553.00 274.10 2.70 c p1
594.23 274.10 2.70 c p1
633.31 274.10 2.70 c p1
672.39 274.10 2.70 c p1
708.27 274.10 2.70 c p1
709.87 274.10 2.70 c p1
713.62 274.10 2.70 c p1
717.37 274.10 2.70 c p1
717.90 274.10 2.70 c p1
718.97 274.10 2.70 c p1
722.19 274.10 2.70 c p1
np
174.76 421.82 m
44.67 0 l
o
0.75 setlinewidth
[ 2.25 3.75] 0 setdash
np
174.76 399.47 m
44.67 0 l
o
0.75 setlinewidth
[] 0 setdash
197.10 421.82 2.70 c p1
np
193.28 399.47 m
7.63 0 l
o
np
197.10 395.65 m
0 7.64 l
o
/Font1 findfont 12 s
241.77 417.51 (F) 0 ta
-0.360 (ez R) tb
-0.360 (T) tb gr
241.77 395.16 (Sem R) 0 ta
-0.360 (T) tb gr
ep
%%Trailer
%%Pages: 1
%%EOF
