%!PS-Adobe-3.0
%%DocumentNeededResources: font Helvetica
%%+ font Helvetica-Bold
%%+ font Helvetica-Oblique
%%+ font Helvetica-BoldOblique
%%+ font Symbol
%%DocumentMedia: a4 595 841 0 () ()
%%Title: R Graphics Output
%%Creator: R Software
%%Pages: (atend)
%%Orientation: Landscape
%%BoundingBox: 18 18 577 824
%%EndComments
%%BeginProlog
/bp  { gs 595.00 0 translate 90 rotate gs } def
% begin .ps.prolog
/gs  { gsave } def
/gr  { grestore } def
/ep  { showpage gr gr } def
/m   { moveto } def
/l  { rlineto } def
/np  { newpath } def
/cp  { closepath } def
/f   { fill } def
/o   { stroke } def
/c   { newpath 0 360 arc } def
/r   { 4 2 roll moveto 1 copy 3 -1 roll exch 0 exch rlineto 0 rlineto -1 mul 0 exch rlineto closepath } def
/p1  { stroke } def
/p2  { gsave bg fill grestore newpath } def
/p3  { gsave bg fill grestore stroke } def
/p6  { gsave bg eofill grestore newpath } def
/p7  { gsave bg eofill grestore stroke } def
/t   { 5 -2 roll moveto gsave rotate
       1 index stringwidth pop
       mul neg 0 rmoveto show grestore } def
/ta  { 4 -2 roll moveto gsave rotate show } def
/tb  { 2 -1 roll 0 rmoveto show } def
/cl  { grestore gsave newpath 3 index 3 index moveto 1 index
       4 -1 roll lineto  exch 1 index lineto lineto
       closepath clip newpath } def
/rgb { setrgbcolor } def
/s   { scalefont setfont } def
% end   .ps.prolog
% begin encoding
/WinAnsiEncoding [
 /.notdef /.notdef /.notdef /.notdef /.notdef /.notdef /.notdef /.notdef
 /.notdef /.notdef /.notdef /.notdef /.notdef /.notdef /.notdef /.notdef
 /.notdef /.notdef /.notdef /.notdef /.notdef /.notdef /.notdef /.notdef
 /.notdef /.notdef /.notdef /.notdef /.notdef /.notdef /.notdef /.notdef
 /space /exclam /quotedbl /numbersign /dollar /percent /ampersand /quoteright
 /parenleft /parenright /asterisk /plus /comma /minus /period /slash
 /zero /one /two /three /four /five /six /seven
 /eight /nine /colon /semicolon /less /equal /greater /question
 /at /A /B /C /D /E /F /G
 /H /I /J /K /L /M /N /O
 /P /Q /R /S /T /U /V /W
 /X /Y /Z /bracketleft /backslash /bracketright /asciicircum /underscore
 /grave /a /b /c /d /e /f /g
 /h /i /j /k /l /m /n /o
 /p /q /r /s /t /u /v /w
 /x /y /z /braceleft /bar /braceright /asciitilde /.notdef
 /Euro /.notdef /quotesinglbase /florin /quotedblbase /ellipsis /dagger /daggerdbl
 /circumflex /perthousand /Scaron /guilsinglleft /OE /.notdef /Zcaron /.notdef
 /.notdef /quoteleft /quoteright /quotedblleft /quotedblright /bullet /endash /emdash
 /tilde /trademark /scaron /guilsinglright /oe /.notdef /zcaron /Ydieresis
 /space /exclamdown /cent /sterling /currency /yen /brokenbar /section
 /dieresis /copyright /ordfeminine /guillemotleft /logicalnot /hyphen /registered /macron
 /degree /plusminus /twosuperior /threesuperior /acute /mu /paragraph /periodcentered
 /cedilla /onesuperior /ordmasculine /guillemotright /onequarter /onehalf /threequarters /questiondown
 /Agrave /Aacute /Acircumflex /Atilde /Adieresis /Aring /AE /Ccedilla
 /Egrave /Eacute /Ecircumflex /Edieresis /Igrave /Iacute /Icircumflex /Idieresis
 /Eth /Ntilde /Ograve /Oacute /Ocircumflex /Otilde /Odieresis /multiply
 /Oslash /Ugrave /Uacute /Ucircumflex /Udieresis /Yacute /Thorn /germandbls
 /agrave /aacute /acircumflex /atilde /adieresis /aring /ae /ccedilla
 /egrave /eacute /ecircumflex /edieresis /igrave /iacute /icircumflex /idieresis
 /eth /ntilde /ograve /oacute /ocircumflex /otilde /odieresis /divide
 /oslash /ugrave /uacute /ucircumflex /udieresis /yacute /thorn /ydieresis
]
 def
% end encoding
%%IncludeResource: font Helvetica
/Helvetica findfont
dup length dict begin
  {1 index /FID ne {def} {pop pop} ifelse} forall
  /Encoding WinAnsiEncoding def
  currentdict
  end
/Font1 exch definefont pop
%%IncludeResource: font Helvetica-Bold
/Helvetica-Bold findfont
dup length dict begin
  {1 index /FID ne {def} {pop pop} ifelse} forall
  /Encoding WinAnsiEncoding def
  currentdict
  end
/Font2 exch definefont pop
%%IncludeResource: font Helvetica-Oblique
/Helvetica-Oblique findfont
dup length dict begin
  {1 index /FID ne {def} {pop pop} ifelse} forall
  /Encoding WinAnsiEncoding def
  currentdict
  end
/Font3 exch definefont pop
%%IncludeResource: font Helvetica-BoldOblique
/Helvetica-BoldOblique findfont
dup length dict begin
  {1 index /FID ne {def} {pop pop} ifelse} forall
  /Encoding WinAnsiEncoding def
  currentdict
  end
/Font4 exch definefont pop
%%IncludeResource: font Symbol
/Symbol findfont
dup length dict begin
  {1 index /FID ne {def} {pop pop} ifelse} forall
  currentdict
  end
/Font5 exch definefont pop
%%EndProlog
%%Page: 1 1
bp
77.04 91.44 793.65 518.24 cl
18.00 18.00 823.89 577.28 cl
0 setgray
0.75 setlinewidth
[] 0 setdash
1 setlinecap
1 setlinejoin
10.00 setmiterlimit
np
77.04 91.44 m
716.61 0 l
o
np
77.04 91.44 m
0 -7.20 l
o
np
196.47 91.44 m
0 -7.20 l
o
np
315.91 91.44 m
0 -7.20 l
o
np
435.34 91.44 m
0 -7.20 l
o
np
554.78 91.44 m
0 -7.20 l
o
np
674.21 91.44 m
0 -7.20 l
o
np
793.65 91.44 m
0 -7.20 l
o
/Font1 findfont 12 s
77.04 65.52 (0) .5 0 t
196.47 65.52 (20) .5 0 t
315.91 65.52 (40) .5 0 t
435.34 65.52 (60) .5 0 t
554.78 65.52 (80) .5 0 t
674.21 65.52 (100) .5 0 t
793.65 65.52 (120) .5 0 t
np
77.04 107.25 m
0 395.18 l
o
np
77.04 107.25 m
-7.20 0 l
o
np
77.04 186.28 m
-7.20 0 l
o
np
77.04 265.32 m
-7.20 0 l
o
np
77.04 344.36 m
-7.20 0 l
o
np
77.04 423.39 m
-7.20 0 l
o
np
77.04 502.43 m
-7.20 0 l
o
59.76 107.25 (0.0) .5 90 t
59.76 186.28 (0.2) .5 90 t
59.76 265.32 (0.4) .5 90 t
59.76 344.36 (0.6) .5 90 t
59.76 423.39 (0.8) .5 90 t
59.76 502.43 (1.0) .5 90 t
np
77.04 91.44 m
716.61 0 l
0 426.80 l
-716.61 0 l
0 -426.80 l
o
18.00 18.00 823.89 577.28 cl
/Font2 findfont 14 s
0 setgray
278.77 542.73 (Cur) 0 ta
0.140 (v) tb
-0.280 (a de sobre) tb
-0.210 (vida com IC95% \(Kaplan-Meier\)) tb gr
/Font1 findfont 12 s
435.34 36.72 (Meses apos Diagnostico) .5 0 t
30.96 231.13 (Probabilidade de Sobre) 90 ta
-0.360 (vida) tb gr
77.04 91.44 793.65 518.24 cl
0 setgray
0.75 setlinewidth
[] 0 setdash
1 setlinecap
1 setlinejoin
10.00 setmiterlimit
np
77.04 502.43 m
4.18 0 l
0 -56.46 l
2.99 0 l
0 -56.45 l
53.74 0 l
0 -56.45 l
84.20 0 l
0 -56.46 l
31.06 0 l
0 -56.45 l
69.27 0 l
0 -56.46 l
56.13 0 l
0 -56.45 l
o
0.75 setlinewidth
[ 2.25 3.75] 0 setdash
np
77.04 502.43 m
176.17 0 l
0 -30.92 l
69.27 0 l
0 -17.72 l
56.13 0 l
o
np
77.04 502.43 m
4.18 0 l
0 -144.86 l
2.99 0 l
0 -73.64 l
53.74 0 l
0 -57.80 l
84.20 0 l
0 -46.88 l
31.06 0 l
0 -37.01 l
69.27 0 l
0 -25.80 l
56.13 0 l
o
2.25 setlinewidth
[ 6.75 11.25] 0 setdash
np
77.04 502.43 m
17.92 0 l
0 0 l
0 0 l
0 -58.45 l
2.98 0 l
0 0 l
0 0 l
0 -33.68 l
32.85 0 l
0 0 l
0 0 l
0 -31.52 l
633.00 0 l
0 0 l
0 0 l
0 0 l
o
np
77.04 502.43 m
686.75 0 l
0 0 l
0 0 l
0 0 l
o
np
77.04 502.43 m
17.92 0 l
0 0 l
0 0 l
0 -20.80 l
2.98 0 l
0 0 l
0 0 l
0 -20.80 l
32.85 0 l
0 0 l
0 0 l
0 -22.10 l
633.00 0 l
0 0 l
0 0 l
0 0 l
o
0.75 setlinewidth
[] 0 setdash
346.37 438.73 2.70 c p1
360.70 438.73 2.70 c p1
432.96 438.73 2.70 c p1
472.97 438.73 2.70 c p1
482.52 438.73 2.70 c p1
526.71 438.73 2.70 c p1
536.27 438.73 2.70 c p1
576.88 438.73 2.70 c p1
588.82 438.73 2.70 c p1
616.29 438.73 2.70 c p1
640.77 438.73 2.70 c p1
648.54 438.73 2.70 c p1
724.38 438.73 2.70 c p1
763.79 438.73 2.70 c p1
2.25 setlinewidth
[] 0 setdash
np
77.04 502.43 m
17.92 0 l
0 0 l
0 0 l
0 -20.80 l
2.98 0 l
0 0 l
0 0 l
0 -20.80 l
32.85 0 l
0 0 l
0 0 l
0 -22.10 l
633.00 0 l
0 0 l
0 0 l
0 0 l
o
0.75 setlinewidth
[] 0 setdash
346.37 438.73 2.70 c p1
360.70 438.73 2.70 c p1
432.96 438.73 2.70 c p1
472.97 438.73 2.70 c p1
482.52 438.73 2.70 c p1
526.71 438.73 2.70 c p1
536.27 438.73 2.70 c p1
576.88 438.73 2.70 c p1
588.82 438.73 2.70 c p1
616.29 438.73 2.70 c p1
640.77 438.73 2.70 c p1
648.54 438.73 2.70 c p1
724.38 438.73 2.70 c p1
763.79 438.73 2.70 c p1
np
89.71 164.95 m
44.68 0 l
o
2.25 setlinewidth
[] 0 setdash
np
89.71 142.61 m
44.68 0 l
o
0.75 setlinewidth
[] 0 setdash
np
108.23 164.95 m
7.64 0 l
o
np
112.05 161.13 m
0 7.64 l
o
2.25 setlinewidth
[] 0 setdash
112.05 142.61 2.70 c p1
/Font1 findfont 12 s
156.73 160.64 (GA) 0 ta
-0.360 (G) tb gr
156.73 138.30 (GBG) 0 0 t
ep
%%Trailer
%%Pages: 1
%%EOF
